%YAML 1.1
%TAG !u! tag:unity3d.com,2011:
--- !u!74 &7400000
AnimationClip:
  m_ObjectHideFlags: 0
  m_PrefabParentObject: {fileID: 0}
  m_PrefabInternal: {fileID: 0}
  m_Name: Camera_Animation
  serializedVersion: 6
  m_Legacy: 0
  m_Compressed: 0
  m_UseHighQualityCurve: 1
  m_RotationCurves:
  - curve:
      serializedVersion: 2
      m_Curve:
      - serializedVersion: 2
        time: 0
        value: {x: 0, y: 0.25460386, z: 0, w: -0.9670454}
        inSlope: {x: 0, y: -0.02016759, z: 0, w: -0.0050860643}
        outSlope: {x: 0, y: -0.02016759, z: 0, w: -0.0050860643}
        tangentMode: 0
      - serializedVersion: 2
        time: 1
        value: {x: 0, y: 0.23443627, z: 0, w: -0.9721315}
        inSlope: {x: 0, y: -0.021310106, z: 0, w: -0.0051138997}
        outSlope: {x: 0, y: -0.021310106, z: 0, w: -0.0051138997}
        tangentMode: 0
      - serializedVersion: 2
        time: 2
        value: {x: 0, y: 0.21198365, z: 0, w: -0.9772732}
        inSlope: {x: 0, y: -0.021960407, z: 0, w: -0.0047763586}
        outSlope: {x: 0, y: -0.021960407, z: 0, w: -0.0047763586}
        tangentMode: 0
      - serializedVersion: 2
        time: 3
        value: {x: 0, y: 0.19051546, z: 0, w: -0.9816842}
        inSlope: {x: 0, y: -0.019311525, z: 0, w: -0.003792584}
        outSlope: {x: 0, y: -0.019311525, z: 0, w: -0.003792584}
        tangentMode: 0
      - serializedVersion: 2
        time: 4
        value: {x: 0, y: 0.1733606, z: 0, w: -0.9848584}
        inSlope: {x: 0, y: -0.013319805, z: 0, w: -0.0023983717}
        outSlope: {x: 0, y: -0.013319805, z: 0, w: -0.0023983717}
        tangentMode: 0
      - serializedVersion: 2
        time: 5
        value: {x: 0, y: 0.16387585, z: 0, w: -0.98648095}
        inSlope: {x: 0.000009475013, y: -0.006172359, z: -0.00005807739, w: -0.0010467172}
        outSlope: {x: 0.000009475013, y: -0.006172359, z: -0.00005807739, w: -0.0010467172}
        tangentMode: 0
      - serializedVersion: 2
        time: 6
        value: {x: 0.000018950026, y: 0.16101588, z: -0.00011615478, w: -0.9869518}
        inSlope: {x: 0.000028702205, y: -0.00064498186, z: -0.00017418672, w: -0.000106692314}
        outSlope: {x: 0.000028702205, y: -0.00064498186, z: -0.00017418672, w: -0.000106692314}
        tangentMode: 0
      - serializedVersion: 2
        time: 7
        value: {x: 0.000057404406, y: 0.16258588, z: -0.00034837343, w: -0.98669434}
        inSlope: {x: 0.000035596364, y: 0.004595518, z: -0.00020286211, w: 0.00077179074}
        outSlope: {x: 0.000035596364, y: 0.004595518, z: -0.00020286211, w: 0.00077179074}
        tangentMode: 0
      - serializedVersion: 2
        time: 8
        value: {x: 0.000090142756, y: 0.17020692, z: -0.000521879, w: -0.98540825}
        inSlope: {x: 0.000014955052, y: 0.011444554, z: -0.00005710998, w: 0.0020227432}
        outSlope: {x: 0.000014955052, y: 0.011444554, z: -0.00005710998, w: 0.0020227432}
        tangentMode: 0
      - serializedVersion: 2
        time: 9
        value: {x: 0.00008731451, y: 0.18547499, z: -0.0004625934, w: -0.98264885}
        inSlope: {x: -0.000045071378, y: 0.019863054, z: 0.0002609395, w: 0.0038462281}
        outSlope: {x: -0.000045071378, y: 0.019863054, z: 0.0002609395, w: 0.0038462281}
        tangentMode: 0
      - serializedVersion: 2
        time: 10
        value: {x: 0, y: 0.20993303, z: 0, w: -0.9777158}
        inSlope: {x: -0.00019721832, y: 0.031601436, z: 0.00077090954, w: 0.0070316494}
        outSlope: {x: -0.00019721832, y: 0.031601436, z: 0.00077090954, w: 0.0070316494}
        tangentMode: 0
      - serializedVersion: 2
        time: 11
        value: {x: -0.00030712213, y: 0.24867786, z: 0.0010792257, w: -0.96858555}
        inSlope: {x: -0.0004583756, y: 0.045123167, z: 0.0013111928, w: 0.011918545}
        outSlope: {x: -0.0004583756, y: 0.045123167, z: 0.0013111928, w: 0.011918545}
        tangentMode: 0
      - serializedVersion: 2
        time: 12
        value: {x: -0.0009167512, y: 0.30017936, z: 0.0026223855, w: -0.9538787}
        inSlope: {x: -0.0007277244, y: 0.053701334, z: 0.0015892572, w: 0.0170708}
        outSlope: {x: -0.0007277244, y: 0.053701334, z: 0.0015892572, w: 0.0170708}
        tangentMode: 0
      - serializedVersion: 2
        time: 13
        value: {x: -0.0017625709, y: 0.35608053, z: 0.00425774, w: -0.93444395}
        inSlope: {x: -0.0008715863, y: 0.054133028, z: 0.0015184358, w: 0.020558685}
        outSlope: {x: -0.0008715863, y: 0.054133028, z: 0.0015184358, w: 0.020558685}
        tangentMode: 0
      - serializedVersion: 2
        time: 14
        value: {x: -0.0026599239, y: 0.40844542, z: 0.005659257, w: -0.91276133}
        inSlope: {x: -0.0007738503, y: 0.046971172, z: 0.0011554391, w: 0.020728588}
        outSlope: {x: -0.0007738503, y: 0.046971172, z: 0.0011554391, w: 0.020728588}
        tangentMode: 0
      - serializedVersion: 2
        time: 15
        value: {x: -0.0033102715, y: 0.45002288, z: 0.006568618, w: -0.8929868}
        inSlope: {x: -0.00045792852, y: 0.035704985, z: 0.0007039495, w: 0.017724752}
        outSlope: {x: -0.00045792852, y: 0.035704985, z: 0.0007039495, w: 0.017724752}
        tangentMode: 0
      - serializedVersion: 2
        time: 16
        value: {x: -0.003575781, y: 0.4798554, z: 0.007067156, w: -0.8773118}
        inSlope: {x: -0.00013457169, y: 0.026575893, z: 0.00040236092, w: 0.01442048}
        outSlope: {x: -0.00013457169, y: 0.026575893, z: 0.00040236092, w: 0.01442048}
        tangentMode: 0
      - serializedVersion: 2
        time: 17
        value: {x: -0.003579415, y: 0.50317466, z: 0.00737334, w: -0.8641458}
        inSlope: {x: 0.00010612572, y: 0.021280542, z: 0.00020140456, w: 0.012330383}
        outSlope: {x: 0.00010612572, y: 0.021280542, z: 0.00020140456, w: 0.012330383}
        tangentMode: 0
      - serializedVersion: 2
        time: 18
        value: {x: -0.0033635295, y: 0.5224165, z: 0.007469965, w: -0.85265106}
        inSlope: {x: 0.00030155387, y: 0.018349737, z: -0.000020860927, w: 0.011218637}
        outSlope: {x: 0.00030155387, y: 0.018349737, z: -0.000020860927, w: 0.011218637}
        tangentMode: 0
      - serializedVersion: 2
        time: 19
        value: {x: -0.0029763072, y: 0.53987414, z: 0.007331618, w: -0.84170854}
        inSlope: {x: 0.0004486296, y: 0.01765272, z: -0.00026963977, w: 0.011327893}
        outSlope: {x: 0.0004486296, y: 0.01765272, z: -0.00026963977, w: 0.011327893}
        tangentMode: 0
      - serializedVersion: 2
        time: 20
        value: {x: -0.0024662702, y: 0.5577219, z: 0.0069306856, w: -0.8299953}
        inSlope: {x: 0.001209213, y: 0.017790139, z: -0.000032586046, w: 0.011953533}
        outSlope: {x: 0.001209213, y: 0.017790139, z: -0.000032586046, w: 0.011953533}
        tangentMode: 0
      - serializedVersion: 2
        time: 21
        value: {x: -0.0005578811, y: 0.5754544, z: 0.007266446, w: -0.8178015}
        inSlope: {x: 0.0026054275, y: 0.01697582, z: 0.0007573082, w: 0.0119332075}
        outSlope: {x: 0.0026054275, y: 0.01697582, z: 0.0007573082, w: 0.0119332075}
        tangentMode: 0
      - serializedVersion: 2
        time: 22
        value: {x: 0.0027445846, y: 0.59167355, z: 0.008445302, w: -0.80612886}
        inSlope: {x: 0.0030627474, y: 0.015829355, z: 0.0008595167, w: 0.011628211}
        outSlope: {x: 0.0030627474, y: 0.015829355, z: 0.0008595167, w: 0.011628211}
        tangentMode: 0
      - serializedVersion: 2
        time: 23
        value: {x: 0.0055676135, y: 0.6071131, z: 0.008985479, w: -0.79454505}
        inSlope: {x: 0.0017053111, y: 0.0154081285, z: -0.00058719935, w: 0.011779457}
        outSlope: {x: 0.0017053111, y: 0.0154081285, z: -0.00058719935, w: 0.011779457}
        tangentMode: 0
      - serializedVersion: 2
        time: 24
        value: {x: 0.006155207, y: 0.6224898, z: 0.0072709033, w: -0.78256994}
        inSlope: {x: -0.0013412831, y: 0.015684843, z: -0.0037180881, w: 0.012457997}
        outSlope: {x: -0.0013412831, y: 0.015684843, z: -0.0037180881, w: 0.012457997}
        tangentMode: 0
      - serializedVersion: 2
        time: 25
        value: {x: 0.0028850473, y: 0.6384828, z: 0.0015493032, w: -0.76962906}
        inSlope: {x: -0.006066752, y: 0.015858024, z: -0.009195291, w: 0.013179421}
        outSlope: {x: -0.006066752, y: 0.015858024, z: -0.009195291, w: 0.013179421}
        tangentMode: 0
      - serializedVersion: 2
        time: 26
        value: {x: -0.0059782974, y: 0.65420586, z: -0.011119679, w: -0.7562111}
        inSlope: {x: -0.010889692, y: 0.015297383, z: -0.015741456, w: 0.0136399865}
        outSlope: {x: -0.010889692, y: 0.015297383, z: -0.015741456, w: 0.0136399865}
        tangentMode: 0
      - serializedVersion: 2
        time: 27
        value: {x: -0.018894337, y: 0.6690776, z: -0.029933607, w: -0.7423491}
        inSlope: {x: -0.01331793, y: 0.01497215, z: -0.019939493, w: 0.01469323}
        outSlope: {x: -0.01331793, y: 0.01497215, z: -0.019939493, w: 0.01469323}
        tangentMode: 0
      - serializedVersion: 2
        time: 28
        value: {x: -0.032614157, y: 0.68415016, z: -0.050998665, w: -0.72682464}
        inSlope: {x: -0.012602471, y: 0.015727222, z: -0.020168073, w: 0.016783357}
        outSlope: {x: -0.012602471, y: 0.015727222, z: -0.020168073, w: 0.016783357}
        tangentMode: 0
      - serializedVersion: 2
        time: 29
        value: {x: -0.04409928, y: 0.700532, z: -0.070269756, w: -0.7087824}
        inSlope: {x: -0.008999731, y: 0.017633408, z: -0.016267952, w: 0.019573897}
        outSlope: {x: -0.008999731, y: 0.017633408, z: -0.016267952, w: 0.019573897}
        tangentMode: 0
      - serializedVersion: 2
        time: 30
        value: {x: -0.05061362, y: 0.719417, z: -0.08353457, w: -0.68767685}
        inSlope: {x: -0.0040503554, y: 0.020291, z: -0.009324241, w: 0.022683978}
        outSlope: {x: -0.0040503554, y: 0.020291, z: -0.009324241, w: 0.022683978}
        tangentMode: 0
      - serializedVersion: 2
        time: 31
        value: {x: -0.05219999, y: 0.741114, z: -0.08891824, w: -0.6634144}
        inSlope: {x: -0.00030907243, y: 0.022581547, z: -0.0027217418, w: 0.025689244}
        outSlope: {x: -0.00030907243, y: 0.022581547, z: -0.0027217418, w: 0.025689244}
        tangentMode: 0
      - serializedVersion: 2
        time: 32
        value: {x: -0.051231764, y: 0.7645801, z: -0.08897805, w: -0.63629836}
        inSlope: {x: 0.00177853, y: 0.023939341, z: 0.0014650524, w: 0.028503329}
        outSlope: {x: 0.00177853, y: 0.023939341, z: 0.0014650524, w: 0.028503329}
        tangentMode: 0
      - serializedVersion: 2
        time: 33
        value: {x: -0.04864293, y: 0.7889927, z: -0.085988134, w: -0.60640776}
        inSlope: {x: 0.0030908957, y: 0.024474025, z: 0.0033491068, w: 0.03119421}
        outSlope: {x: 0.0030908957, y: 0.024474025, z: 0.0033491068, w: 0.03119421}
        tangentMode: 0
      - serializedVersion: 2
        time: 34
        value: {x: -0.045049973, y: 0.8135281, z: -0.08227984, w: -0.57390994}
        inSlope: {x: 0.0039854906, y: 0.02420324, z: 0.0028763972, w: 0.033634484}
        outSlope: {x: 0.0039854906, y: 0.02420324, z: 0.0028763972, w: 0.033634484}
        tangentMode: 0
      - serializedVersion: 2
        time: 35
        value: {x: -0.04067195, y: 0.8373992, z: -0.08023534, w: -0.5391388}
        inSlope: {x: 0.0055735298, y: 0.024090648, z: 0.0011898354, w: 0.03699325}
        outSlope: {x: 0.0055735298, y: 0.024090648, z: 0.0011898354, w: 0.03699325}
        tangentMode: 0
      - serializedVersion: 2
        time: 36
        value: {x: -0.033902913, y: 0.8617094, z: -0.07990017, w: -0.49992344}
        inSlope: {x: 0.008028941, y: 0.024417192, z: 0.0005166307, w: 0.04169263}
        outSlope: {x: 0.008028941, y: 0.024417192, z: 0.0005166307, w: 0.04169263}
        tangentMode: 0
      - serializedVersion: 2
        time: 37
        value: {x: -0.024614066, y: 0.88623357, z: -0.07920208, w: -0.45575354}
        inSlope: {x: 0.0094748335, y: 0.023498237, z: 0.0011047535, w: 0.045026287}
        outSlope: {x: 0.0094748335, y: 0.023498237, z: 0.0011047535, w: 0.045026287}
        tangentMode: 0
      - serializedVersion: 2
        time: 38
        value: {x: -0.014953246, y: 0.9087059, z: -0.07769066, w: -0.40987086}
        inSlope: {x: 0.00877126, y: 0.020672798, z: 0.0018957108, w: 0.04494235}
        outSlope: {x: 0.00877126, y: 0.020672798, z: 0.0018957108, w: 0.04494235}
        tangentMode: 0
      - serializedVersion: 2
        time: 39
        value: {x: -0.0070715453, y: 0.92757916, z: -0.07541066, w: -0.36586884}
        inSlope: {x: 0.005949705, y: 0.01665011, z: 0.0024193116, w: 0.04114613}
        outSlope: {x: 0.005949705, y: 0.01665011, z: 0.0024193116, w: 0.04114613}
        tangentMode: 0
      - serializedVersion: 2
        time: 40
        value: {x: -0.0030538365, y: 0.9420061, z: -0.07285204, w: -0.3275786}
        inSlope: {x: 0.0015495829, y: 0.012343824, z: 0.002424527, w: 0.034447655}
        outSlope: {x: 0.0015495829, y: 0.012343824, z: 0.002424527, w: 0.034447655}
        tangentMode: 0
      - serializedVersion: 2
        time: 41
        value: {x: -0.0039723795, y: 0.9522668, z: -0.0705616, w: -0.29697353}
        inSlope: {x: -0.0026574414, y: 0.008906722, z: 0.002057366, w: 0.027819082}
        outSlope: {x: -0.0026574414, y: 0.008906722, z: 0.002057366, w: 0.027819082}
        tangentMode: 0
      - serializedVersion: 2
        time: 42
        value: {x: -0.008368719, y: 0.95981956, z: -0.068737306, w: -0.27194044}
        inSlope: {x: -0.0052542314, y: 0.0067371726, z: 0.0015848391, w: 0.023394287}
        outSlope: {x: -0.0052542314, y: 0.0067371726, z: 0.0015848391, w: 0.023394287}
        tangentMode: 0
      - serializedVersion: 2
        time: 43
        value: {x: -0.014480842, y: 0.96574116, z: -0.067391925, w: -0.25018495}
        inSlope: {x: -0.0061067324, y: 0.0055238307, z: 0.0011703745, w: 0.021313444}
        outSlope: {x: -0.0061067324, y: 0.0055238307, z: 0.0011703745, w: 0.021313444}
        tangentMode: 0
      - serializedVersion: 2
        time: 44
        value: {x: -0.020582184, y: 0.9708672, z: -0.06639656, w: -0.22931355}
        inSlope: {x: -0.005249369, y: 0.0050558746, z: 0.0009265579, w: 0.021661617}
        outSlope: {x: -0.005249369, y: 0.0050558746, z: 0.0009265579, w: 0.021661617}
        tangentMode: 0
      - serializedVersion: 2
        time: 45
        value: {x: -0.02497958, y: 0.9758529, z: -0.06553881, w: -0.20686172}
        inSlope: {x: -0.0039752442, y: 0.004988402, z: 0.00028210506, w: 0.024106912}
        outSlope: {x: -0.0039752442, y: 0.004988402, z: 0.00028210506, w: 0.024106912}
        tangentMode: 0
      - serializedVersion: 2
        time: 46
        value: {x: -0.028532673, y: 0.980844, z: -0.06583235, w: -0.18109973}
        inSlope: {x: -0.0036455095, y: 0.0047163367, z: -0.00094500184, w: 0.026579916}
        outSlope: {x: -0.0036455095, y: 0.0047163367, z: -0.00094500184, w: 0.026579916}
        tangentMode: 0
      - serializedVersion: 2
        time: 47
        value: {x: -0.0322706, y: 0.9852856, z: -0.06742881, w: -0.15370189}
        inSlope: {x: -0.0031923018, y: 0.004017025, z: -0.0013870746, w: 0.026921771}
        outSlope: {x: -0.0031923018, y: 0.004017025, z: -0.0013870746, w: 0.026921771}
        tangentMode: 0
      - serializedVersion: 2
        time: 48
        value: {x: -0.034917276, y: 0.9888781, z: -0.068606496, w: -0.12725618}
        inSlope: {x: -0.0015584715, y: 0.003166616, z: -0.000021729618, w: 0.024680134}
        outSlope: {x: -0.0015584715, y: 0.003166616, z: -0.000021729618, w: 0.024680134}
        tangentMode: 0
      - serializedVersion: 2
        time: 49
        value: {x: -0.035387542, y: 0.9916188, z: -0.06747227, w: -0.10434162}
        inSlope: {x: 0.0011044499, y: 0.0024048686, z: 0.0032811556, w: 0.019852474}
        outSlope: {x: 0.0011044499, y: 0.0024048686, z: 0.0032811556, w: 0.019852474}
        tangentMode: 0
      - serializedVersion: 2
        time: 50
        value: {x: -0.032708377, y: 0.9936878, z: -0.062044185, w: -0.087551236}
        inSlope: {x: 0.005284504, y: 0.0018371046, z: 0.009010728, w: 0.012388807}
        outSlope: {x: 0.005284504, y: 0.0018371046, z: 0.009010728, w: 0.012388807}
        tangentMode: 0
      - serializedVersion: 2
        time: 51
        value: {x: -0.024818534, y: 0.995293, z: -0.049450815, w: -0.079564005}
        inSlope: {x: 0.010206313, y: 0.0013164878, z: 0.015554698, w: 0.004288934}
        outSlope: {x: 0.010206313, y: 0.0013164878, z: 0.015554698, w: 0.004288934}
        tangentMode: 0
      - serializedVersion: 2
        time: 52
        value: {x: -0.012295751, y: 0.9963208, z: -0.030934788, w: -0.07897337}
        inSlope: {x: 0.013333051, y: 0.0006350577, z: 0.019356433, w: -0.0012766123}
        outSlope: {x: 0.013333051, y: 0.0006350577, z: 0.019356433, w: -0.0012766123}
        tangentMode: 0
      - serializedVersion: 2
        time: 53
        value: {x: 0.0018475684, y: 0.99656314, z: -0.010737949, w: -0.08211723}
        inSlope: {x: 0.013293682, y: -0.000030845404, z: 0.018996809, w: -0.0029805228}
        outSlope: {x: 0.013293682, y: -0.000030845404, z: 0.018996809, w: -0.0029805228}
        tangentMode: 0
      - serializedVersion: 2
        time: 54
        value: {x: 0.0142916115, y: 0.9962591, z: 0.0070588286, w: -0.08493441}
        inSlope: {x: 0.009777842, y: -0.00020873547, z: 0.014671727, w: -0.00044312328}
        outSlope: {x: 0.009777842, y: -0.00020873547, z: 0.014671727, w: -0.00044312328}
        tangentMode: 0
      - serializedVersion: 2
        time: 55
        value: {x: 0.021403251, y: 0.99614567, z: 0.018605506, w: -0.083003476}
        inSlope: {x: 0.0037827115, y: 0.00020956993, z: 0.007733562, w: 0.004892979}
        outSlope: {x: 0.0037827115, y: 0.00020956993, z: 0.007733562, w: 0.004892979}
        tangentMode: 0
      - serializedVersion: 2
        time: 56
        value: {x: 0.021857034, y: 0.99667823, z: 0.022525953, w: -0.075148456}
        inSlope: {x: -0.0016574338, y: 0.0007022619, z: 0.0013638912, w: 0.009441793}
        outSlope: {x: -0.0016574338, y: 0.0007022619, z: 0.0013638912, w: 0.009441793}
        tangentMode: 0
      - serializedVersion: 2
        time: 57
        value: {x: 0.018088384, y: 0.9975502, z: 0.021333288, w: -0.06411989}
        inSlope: {x: -0.004919434, y: 0.0008930862, z: -0.0027178638, w: 0.011920614}
        outSlope: {x: -0.004919434, y: 0.0008930862, z: -0.0027178638, w: 0.011920614}
        tangentMode: 0
      - serializedVersion: 2
        time: 58
        value: {x: 0.0120181665, y: 0.9984644, z: 0.017090226, w: -0.051307227}
        inSlope: {x: -0.006300232, y: 0.000818789, z: -0.004695519, w: 0.013013201}
        outSlope: {x: -0.006300232, y: 0.000818789, z: -0.004695519, w: 0.013013201}
        tangentMode: 0
      - serializedVersion: 2
        time: 59
        value: {x: 0.00548792, y: 0.99918777, z: 0.011942251, w: -0.03809349}
        inSlope: {x: -0.005903872, y: 0.00058472157, z: -0.004468483, w: 0.012754174}
        outSlope: {x: -0.005903872, y: 0.00058472157, z: -0.004468483, w: 0.012754174}
        tangentMode: 0
      - serializedVersion: 2
        time: 60
        value: {x: 0.000210422, y: 0.99963385, z: 0.00815326, w: -0.02579888}
        inSlope: {x: -0.0052774977, y: 0.00044608116, z: -0.003788991, w: 0.012294609}
        outSlope: {x: -0.0052774977, y: 0.00044608116, z: -0.003788991, w: 0.012294609}
        tangentMode: 0
      m_PreInfinity: 2
      m_PostInfinity: 2
      m_RotationOrder: 4
    path: 
  m_CompressedRotationCurves: []
  m_EulerCurves: []
  m_PositionCurves:
  - curve:
      serializedVersion: 2
      m_Curve:
      - serializedVersion: 2
        time: 0
        value: {x: 355.85, y: 10.69, z: 341.12}
        inSlope: {x: 1.0859985, y: 0.30200005, z: -0.16199951}
        outSlope: {x: 1.0859985, y: 0.30200005, z: -0.16199951}
        tangentMode: 0
      - serializedVersion: 2
        time: 5
        value: {x: 361.28, y: 12.2, z: 340.31}
        inSlope: {x: 1.2209991, y: 0.25800008, z: -0.19199829}
        outSlope: {x: 1.2209991, y: 0.25800008, z: -0.19199829}
        tangentMode: 0
      - serializedVersion: 2
        time: 10
        value: {x: 368.06, y: 13.27, z: 339.2}
        inSlope: {x: 1.5600007, y: 0.10700007, z: 0.2860016}
        outSlope: {x: 1.5600007, y: 0.10700007, z: 0.2860016}
        tangentMode: 0
      - serializedVersion: 2
        time: 15
        value: {x: 376.88, y: 13.27, z: 343.17}
        inSlope: {x: 1.0860016, y: -0.007000065, z: 0.8649994}
        outSlope: {x: 1.0860016, y: -0.007000065, z: 0.8649994}
        tangentMode: 0
      - serializedVersion: 2
        time: 20
        value: {x: 378.92, y: 13.2, z: 347.85}
        inSlope: {x: 0.39799803, y: -0.017000008, z: 1.1699982}
        outSlope: {x: 0.39799803, y: -0.017000008, z: 1.1699982}
        tangentMode: 0
      - serializedVersion: 2
        time: 25
        value: {x: 380.86, y: 13.1, z: 354.87}
        inSlope: {x: 0.49499816, y: 0.32699996, z: 1.6600006}
        outSlope: {x: 0.49499816, y: 0.32699996, z: 1.6600006}
        tangentMode: 0
      - serializedVersion: 2
        time: 30
        value: {x: 383.87, y: 16.47, z: 364.45}
        inSlope: {x: 0.24400026, y: 0.36000004, z: 2.973001}
        outSlope: {x: 0.24400026, y: 0.36000004, z: 2.973001}
        tangentMode: 0
      - serializedVersion: 2
        time: 35
        value: {x: 383.3, y: 16.7, z: 384.6}
        inSlope: {x: -1.0669984, y: -0.076999955, z: 3.225}
        outSlope: {x: -1.0669984, y: -0.076999955, z: 3.225}
        tangentMode: 0
      - serializedVersion: 2
        time: 40
        value: {x: 373.2, y: 15.7, z: 396.7}
        inSlope: {x: -1.8299989, y: -0.29000008, z: 0.16999817}
        outSlope: {x: -1.8299989, y: -0.29000008, z: 0.16999817}
        tangentMode: 0
      - serializedVersion: 2
        time: 45
        value: {x: 365, y: 13.8, z: 386.3}
        inSlope: {x: -1.1300018, y: -0.33999997, z: -2.1}
        outSlope: {x: -1.1300018, y: -0.33999997, z: -2.1}
        tangentMode: 0
      - serializedVersion: 2
        time: 50
        value: {x: 361.9, y: 12.3, z: 375.7}
        inSlope: {x: -0.47999877, y: -0.13000003, z: -1.9599975}
        outSlope: {x: -0.47999877, y: -0.13000003, z: -1.9599975}
        tangentMode: 0
      - serializedVersion: 2
        time: 55
        value: {x: 360.2, y: 12.5, z: 366.7}
        inSlope: {x: 0.12000123, y: -0.06999998, z: -2.3100004}
        outSlope: {x: 0.12000123, y: -0.06999998, z: -2.3100004}
        tangentMode: 0
      - serializedVersion: 2
        time: 60
        value: {x: 363.1, y: 11.6, z: 352.6}
        inSlope: {x: 0.5799988, y: -0.17999992, z: -2.8200011}
        outSlope: {x: 0.5799988, y: -0.17999992, z: -2.8200011}
        tangentMode: 0
      m_PreInfinity: 2
      m_PostInfinity: 2
      m_RotationOrder: 4
    path: 
  m_ScaleCurves: []
  m_FloatCurves: []
  m_PPtrCurves: []
  m_SampleRate: 1
  m_WrapMode: 0
  m_Bounds:
    m_Center: {x: 0, y: 0, z: 0}
    m_Extent: {x: 0, y: 0, z: 0}
  m_ClipBindingConstant:
    genericBindings:
    - serializedVersion: 2
      path: 0
      attribute: 1
      script: {fileID: 0}
      typeID: 4
      customType: 0
      isPPtrCurve: 0
    - serializedVersion: 2
      path: 0
      attribute: 2
      script: {fileID: 0}
      typeID: 4
      customType: 0
      isPPtrCurve: 0
    pptrCurveMapping: []
  m_AnimationClipSettings:
    serializedVersion: 2
    m_AdditiveReferencePoseClip: {fileID: 0}
    m_AdditiveReferencePoseTime: 0
    m_StartTime: 0
    m_StopTime: 60
    m_OrientationOffsetY: 0
    m_Level: 0
    m_CycleOffset: 0
    m_HasAdditiveReferencePose: 0
    m_LoopTime: 1
    m_LoopBlend: 0
    m_LoopBlendOrientation: 0
    m_LoopBlendPositionY: 0
    m_LoopBlendPositionXZ: 0
    m_KeepOriginalOrientation: 0
    m_KeepOriginalPositionY: 1
    m_KeepOriginalPositionXZ: 0
    m_HeightFromFeet: 0
    m_Mirror: 0
  m_EditorCurves:
  - curve:
      serializedVersion: 2
      m_Curve:
      - serializedVersion: 2
        time: 0
        value: 355.85
        inSlope: 1.0859985
        outSlope: 1.0859985
        tangentMode: 34
      - serializedVersion: 2
        time: 5
        value: 361.28
        inSlope: 1.2209991
        outSlope: 1.2209991
        tangentMode: 34
      - serializedVersion: 2
        time: 10
        value: 368.06
        inSlope: 1.5600007
        outSlope: 1.5600007
        tangentMode: 34
      - serializedVersion: 2
        time: 15
        value: 376.88
        inSlope: 1.0860016
        outSlope: 1.0860016
        tangentMode: 34
      - serializedVersion: 2
        time: 20
        value: 378.92
        inSlope: 0.39799803
        outSlope: 0.39799803
        tangentMode: 34
      - serializedVersion: 2
        time: 25
        value: 380.86
        inSlope: 0.49499816
        outSlope: 0.49499816
        tangentMode: 34
      - serializedVersion: 2
        time: 30
        value: 383.87
        inSlope: 0.24400026
        outSlope: 0.24400026
        tangentMode: 34
      - serializedVersion: 2
        time: 35
        value: 383.3
        inSlope: -1.0669984
        outSlope: -1.0669984
        tangentMode: 34
      - serializedVersion: 2
        time: 40
        value: 373.2
        inSlope: -1.8299989
        outSlope: -1.8299989
        tangentMode: 34
      - serializedVersion: 2
        time: 45
        value: 365
        inSlope: -1.1300018
        outSlope: -1.1300018
        tangentMode: 34
      - serializedVersion: 2
        time: 50
        value: 361.9
        inSlope: -0.47999877
        outSlope: -0.47999877
        tangentMode: 34
      - serializedVersion: 2
        time: 55
        value: 360.2
        inSlope: 0.12000123
        outSlope: 0.12000123
        tangentMode: 34
      - serializedVersion: 2
        time: 60
        value: 363.1
        inSlope: 0.5799988
        outSlope: 0.5799988
        tangentMode: 34
      m_PreInfinity: 2
      m_PostInfinity: 2
      m_RotationOrder: 4
    attribute: m_LocalPosition.x
    path: 
    classID: 4
    script: {fileID: 0}
  - curve:
      serializedVersion: 2
      m_Curve:
      - serializedVersion: 2
        time: 0
        value: 10.69
        inSlope: 0.30200005
        outSlope: 0.30200005
        tangentMode: 34
      - serializedVersion: 2
        time: 5
        value: 12.2
        inSlope: 0.25800008
        outSlope: 0.25800008
        tangentMode: 34
      - serializedVersion: 2
        time: 10
        value: 13.27
        inSlope: 0.10700007
        outSlope: 0.10700007
        tangentMode: 34
      - serializedVersion: 2
        time: 15
        value: 13.27
        inSlope: -0.007000065
        outSlope: -0.007000065
        tangentMode: 34
      - serializedVersion: 2
        time: 20
        value: 13.2
        inSlope: -0.017000008
        outSlope: -0.017000008
        tangentMode: 34
      - serializedVersion: 2
        time: 25
        value: 13.1
        inSlope: 0.32699996
        outSlope: 0.32699996
        tangentMode: 34
      - serializedVersion: 2
        time: 30
        value: 16.47
        inSlope: 0.36000004
        outSlope: 0.36000004
        tangentMode: 34
      - serializedVersion: 2
        time: 35
        value: 16.7
        inSlope: -0.076999955
        outSlope: -0.076999955
        tangentMode: 34
      - serializedVersion: 2
        time: 40
        value: 15.7
        inSlope: -0.29000008
        outSlope: -0.29000008
        tangentMode: 34
      - serializedVersion: 2
        time: 45
        value: 13.8
        inSlope: -0.33999997
        outSlope: -0.33999997
        tangentMode: 34
      - serializedVersion: 2
        time: 50
        value: 12.3
        inSlope: -0.13000003
        outSlope: -0.13000003
        tangentMode: 34
      - serializedVersion: 2
        time: 55
        value: 12.5
        inSlope: -0.06999998
        outSlope: -0.06999998
        tangentMode: 34
      - serializedVersion: 2
        time: 60
        value: 11.6
        inSlope: -0.17999992
        outSlope: -0.17999992
        tangentMode: 34
      m_PreInfinity: 2
      m_PostInfinity: 2
      m_RotationOrder: 4
    attribute: m_LocalPosition.y
    path: 
    classID: 4
    script: {fileID: 0}
  - curve:
      serializedVersion: 2
      m_Curve:
      - serializedVersion: 2
        time: 0
        value: 341.12
        inSlope: -0.16199951
        outSlope: -0.16199951
        tangentMode: 34
      - serializedVersion: 2
        time: 5
        value: 340.31
        inSlope: -0.19199829
        outSlope: -0.19199829
        tangentMode: 34
      - serializedVersion: 2
        time: 10
        value: 339.2
        inSlope: 0.2860016
        outSlope: 0.2860016
        tangentMode: 34
      - serializedVersion: 2
        time: 15
        value: 343.17
        inSlope: 0.8649994
        outSlope: 0.8649994
        tangentMode: 34
      - serializedVersion: 2
        time: 20
        value: 347.85
        inSlope: 1.1699982
        outSlope: 1.1699982
        tangentMode: 34
      - serializedVersion: 2
        time: 25
        value: 354.87
        inSlope: 1.6600006
        outSlope: 1.6600006
        tangentMode: 34
      - serializedVersion: 2
        time: 30
        value: 364.45
        inSlope: 2.973001
        outSlope: 2.973001
        tangentMode: 34
      - serializedVersion: 2
        time: 35
        value: 384.6
        inSlope: 3.225
        outSlope: 3.225
        tangentMode: 34
      - serializedVersion: 2
        time: 40
        value: 396.7
        inSlope: 0.16999817
        outSlope: 0.16999817
        tangentMode: 34
      - serializedVersion: 2
        time: 45
        value: 386.3
        inSlope: -2.1
        outSlope: -2.1
        tangentMode: 34
      - serializedVersion: 2
        time: 50
        value: 375.7
        inSlope: -1.9599975
        outSlope: -1.9599975
        tangentMode: 34
      - serializedVersion: 2
        time: 55
        value: 366.7
        inSlope: -2.3100004
        outSlope: -2.3100004
        tangentMode: 34
      - serializedVersion: 2
        time: 60
        value: 352.6
        inSlope: -2.8200011
        outSlope: -2.8200011
        tangentMode: 34
      m_PreInfinity: 2
      m_PostInfinity: 2
      m_RotationOrder: 4
    attribute: m_LocalPosition.z
    path: 
    classID: 4
    script: {fileID: 0}
  - curve:
      serializedVersion: 2
      m_Curve:
      - serializedVersion: 2
        time: 0
        value: 0
        inSlope: 0
        outSlope: 0
        tangentMode: 0
      - serializedVersion: 2
        time: 1
        value: 0
        inSlope: 0
        outSlope: 0
        tangentMode: 0
      - serializedVersion: 2
        time: 2
        value: 0
        inSlope: 0
        outSlope: 0
        tangentMode: 0
      - serializedVersion: 2
        time: 3
        value: 0
        inSlope: 0
        outSlope: 0
        tangentMode: 0
      - serializedVersion: 2
        time: 4
        value: 0
        inSlope: 0
        outSlope: 0
        tangentMode: 0
      - serializedVersion: 2
        time: 5
        value: 0
        inSlope: 0.000009475013
        outSlope: 0.000009475013
        tangentMode: 0
      - serializedVersion: 2
        time: 6
        value: 0.000018950026
        inSlope: 0.000028702205
        outSlope: 0.000028702205
        tangentMode: 0
      - serializedVersion: 2
        time: 7
        value: 0.000057404406
        inSlope: 0.000035596364
        outSlope: 0.000035596364
        tangentMode: 0
      - serializedVersion: 2
        time: 8
        value: 0.000090142756
        inSlope: 0.000014955052
        outSlope: 0.000014955052
        tangentMode: 0
      - serializedVersion: 2
        time: 9
        value: 0.00008731451
        inSlope: -0.000045071378
        outSlope: -0.000045071378
        tangentMode: 0
      - serializedVersion: 2
        time: 10
        value: 0
        inSlope: -0.00019721832
        outSlope: -0.00019721832
        tangentMode: 0
      - serializedVersion: 2
        time: 11
        value: -0.00030712213
        inSlope: -0.0004583756
        outSlope: -0.0004583756
        tangentMode: 0
      - serializedVersion: 2
        time: 12
        value: -0.0009167512
        inSlope: -0.0007277244
        outSlope: -0.0007277244
        tangentMode: 0
      - serializedVersion: 2
        time: 13
        value: -0.0017625709
        inSlope: -0.0008715863
        outSlope: -0.0008715863
        tangentMode: 0
      - serializedVersion: 2
        time: 14
        value: -0.0026599239
        inSlope: -0.0007738503
        outSlope: -0.0007738503
        tangentMode: 0
      - serializedVersion: 2
        time: 15
        value: -0.0033102715
        inSlope: -0.00045792852
        outSlope: -0.00045792852
        tangentMode: 0
      - serializedVersion: 2
        time: 16
        value: -0.003575781
        inSlope: -0.00013457169
        outSlope: -0.00013457169
        tangentMode: 0
      - serializedVersion: 2
        time: 17
        value: -0.003579415
        inSlope: 0.00010612572
        outSlope: 0.00010612572
        tangentMode: 0
      - serializedVersion: 2
        time: 18
        value: -0.0033635295
        inSlope: 0.00030155387
        outSlope: 0.00030155387
        tangentMode: 0
      - serializedVersion: 2
        time: 19
        value: -0.0029763072
        inSlope: 0.0004486296
        outSlope: 0.0004486296
        tangentMode: 0
      - serializedVersion: 2
        time: 20
        value: -0.0024662702
        inSlope: 0.001209213
        outSlope: 0.001209213
        tangentMode: 0
      - serializedVersion: 2
        time: 21
        value: -0.0005578811
        inSlope: 0.0026054275
        outSlope: 0.0026054275
        tangentMode: 0
      - serializedVersion: 2
        time: 22
        value: 0.0027445846
        inSlope: 0.0030627474
        outSlope: 0.0030627474
        tangentMode: 0
      - serializedVersion: 2
        time: 23
        value: 0.0055676135
        inSlope: 0.0017053111
        outSlope: 0.0017053111
        tangentMode: 0
      - serializedVersion: 2
        time: 24
        value: 0.006155207
        inSlope: -0.0013412831
        outSlope: -0.0013412831
        tangentMode: 0
      - serializedVersion: 2
        time: 25
        value: 0.0028850473
        inSlope: -0.006066752
        outSlope: -0.006066752
        tangentMode: 0
      - serializedVersion: 2
        time: 26
        value: -0.0059782974
        inSlope: -0.010889692
        outSlope: -0.010889692
        tangentMode: 0
      - serializedVersion: 2
        time: 27
        value: -0.018894337
        inSlope: -0.01331793
        outSlope: -0.01331793
        tangentMode: 0
      - serializedVersion: 2
        time: 28
        value: -0.032614157
        inSlope: -0.012602471
        outSlope: -0.012602471
        tangentMode: 0
      - serializedVersion: 2
        time: 29
        value: -0.04409928
        inSlope: -0.008999731
        outSlope: -0.008999731
        tangentMode: 0
      - serializedVersion: 2
        time: 30
        value: -0.05061362
        inSlope: -0.0040503554
        outSlope: -0.0040503554
        tangentMode: 0
      - serializedVersion: 2
        time: 31
        value: -0.05219999
        inSlope: -0.00030907243
        outSlope: -0.00030907243
        tangentMode: 0
      - serializedVersion: 2
        time: 32
        value: -0.051231764
        inSlope: 0.00177853
        outSlope: 0.00177853
        tangentMode: 0
      - serializedVersion: 2
        time: 33
        value: -0.04864293
        inSlope: 0.0030908957
        outSlope: 0.0030908957
        tangentMode: 0
      - serializedVersion: 2
        time: 34
        value: -0.045049973
        inSlope: 0.0039854906
        outSlope: 0.0039854906
        tangentMode: 0
      - serializedVersion: 2
        time: 35
        value: -0.04067195
        inSlope: 0.0055735298
        outSlope: 0.0055735298
        tangentMode: 0
      - serializedVersion: 2
        time: 36
        value: -0.033902913
        inSlope: 0.008028941
        outSlope: 0.008028941
        tangentMode: 0
      - serializedVersion: 2
        time: 37
        value: -0.024614066
        inSlope: 0.0094748335
        outSlope: 0.0094748335
        tangentMode: 0
      - serializedVersion: 2
        time: 38
        value: -0.014953246
        inSlope: 0.00877126
        outSlope: 0.00877126
        tangentMode: 0
      - serializedVersion: 2
        time: 39
        value: -0.0070715453
        inSlope: 0.005949705
        outSlope: 0.005949705
        tangentMode: 0
      - serializedVersion: 2
        time: 40
        value: -0.0030538365
        inSlope: 0.0015495829
        outSlope: 0.0015495829
        tangentMode: 0
      - serializedVersion: 2
        time: 41
        value: -0.0039723795
        inSlope: -0.0026574414
        outSlope: -0.0026574414
        tangentMode: 0
      - serializedVersion: 2
        time: 42
        value: -0.008368719
        inSlope: -0.0052542314
        outSlope: -0.0052542314
        tangentMode: 0
      - serializedVersion: 2
        time: 43
        value: -0.014480842
        inSlope: -0.0061067324
        outSlope: -0.0061067324
        tangentMode: 0
      - serializedVersion: 2
        time: 44
        value: -0.020582184
        inSlope: -0.005249369
        outSlope: -0.005249369
        tangentMode: 0
      - serializedVersion: 2
        time: 45
        value: -0.02497958
        inSlope: -0.0039752442
        outSlope: -0.0039752442
        tangentMode: 0
      - serializedVersion: 2
        time: 46
        value: -0.028532673
        inSlope: -0.0036455095
        outSlope: -0.0036455095
        tangentMode: 0
      - serializedVersion: 2
        time: 47
        value: -0.0322706
        inSlope: -0.0031923018
        outSlope: -0.0031923018
        tangentMode: 0
      - serializedVersion: 2
        time: 48
        value: -0.034917276
        inSlope: -0.0015584715
        outSlope: -0.0015584715
        tangentMode: 0
      - serializedVersion: 2
        time: 49
        value: -0.035387542
        inSlope: 0.0011044499
        outSlope: 0.0011044499
        tangentMode: 0
      - serializedVersion: 2
        time: 50
        value: -0.032708377
        inSlope: 0.005284504
        outSlope: 0.005284504
        tangentMode: 0
      - serializedVersion: 2
        time: 51
        value: -0.024818534
        inSlope: 0.010206313
        outSlope: 0.010206313
        tangentMode: 0
      - serializedVersion: 2
        time: 52
        value: -0.012295751
        inSlope: 0.013333051
        outSlope: 0.013333051
        tangentMode: 0
      - serializedVersion: 2
        time: 53
        value: 0.0018475684
        inSlope: 0.013293682
        outSlope: 0.013293682
        tangentMode: 0
      - serializedVersion: 2
        time: 54
        value: 0.0142916115
        inSlope: 0.009777842
        outSlope: 0.009777842
        tangentMode: 0
      - serializedVersion: 2
        time: 55
        value: 0.021403251
        inSlope: 0.0037827115
        outSlope: 0.0037827115
        tangentMode: 0
      - serializedVersion: 2
        time: 56
        value: 0.021857034
        inSlope: -0.0016574338
        outSlope: -0.0016574338
        tangentMode: 0
      - serializedVersion: 2
        time: 57
        value: 0.018088384
        inSlope: -0.004919434
        outSlope: -0.004919434
        tangentMode: 0
      - serializedVersion: 2
        time: 58
        value: 0.0120181665
        inSlope: -0.006300232
        outSlope: -0.006300232
        tangentMode: 0
      - serializedVersion: 2
        time: 59
        value: 0.00548792
        inSlope: -0.005903872
        outSlope: -0.005903872
        tangentMode: 0
      - serializedVersion: 2
        time: 60
        value: 0.000210422
        inSlope: -0.0052774977
        outSlope: -0.0052774977
        tangentMode: 0
      m_PreInfinity: 2
      m_PostInfinity: 2
      m_RotationOrder: 4
    attribute: m_LocalRotation.x
    path: 
    classID: 4
    script: {fileID: 0}
  - curve:
      serializedVersion: 2
      m_Curve:
      - serializedVersion: 2
        time: 0
        value: 0.25460386
        inSlope: -0.02016759
        outSlope: -0.02016759
        tangentMode: 0
      - serializedVersion: 2
        time: 1
        value: 0.23443627
        inSlope: -0.021310106
        outSlope: -0.021310106
        tangentMode: 0
      - serializedVersion: 2
        time: 2
        value: 0.21198365
        inSlope: -0.021960407
        outSlope: -0.021960407
        tangentMode: 0
      - serializedVersion: 2
        time: 3
        value: 0.19051546
        inSlope: -0.019311525
        outSlope: -0.019311525
        tangentMode: 0
      - serializedVersion: 2
        time: 4
        value: 0.1733606
        inSlope: -0.013319805
        outSlope: -0.013319805
        tangentMode: 0
      - serializedVersion: 2
        time: 5
        value: 0.16387585
        inSlope: -0.006172359
        outSlope: -0.006172359
        tangentMode: 0
      - serializedVersion: 2
        time: 6
        value: 0.16101588
        inSlope: -0.00064498186
        outSlope: -0.00064498186
        tangentMode: 0
      - serializedVersion: 2
        time: 7
        value: 0.16258588
        inSlope: 0.004595518
        outSlope: 0.004595518
        tangentMode: 0
      - serializedVersion: 2
        time: 8
        value: 0.17020692
        inSlope: 0.011444554
        outSlope: 0.011444554
        tangentMode: 0
      - serializedVersion: 2
        time: 9
        value: 0.18547499
        inSlope: 0.019863054
        outSlope: 0.019863054
        tangentMode: 0
      - serializedVersion: 2
        time: 10
        value: 0.20993303
        inSlope: 0.031601436
        outSlope: 0.031601436
        tangentMode: 0
      - serializedVersion: 2
        time: 11
        value: 0.24867786
        inSlope: 0.045123167
        outSlope: 0.045123167
        tangentMode: 0
      - serializedVersion: 2
        time: 12
        value: 0.30017936
        inSlope: 0.053701334
        outSlope: 0.053701334
        tangentMode: 0
      - serializedVersion: 2
        time: 13
        value: 0.35608053
        inSlope: 0.054133028
        outSlope: 0.054133028
        tangentMode: 0
      - serializedVersion: 2
        time: 14
        value: 0.40844542
        inSlope: 0.046971172
        outSlope: 0.046971172
        tangentMode: 0
      - serializedVersion: 2
        time: 15
        value: 0.45002288
        inSlope: 0.035704985
        outSlope: 0.035704985
        tangentMode: 0
      - serializedVersion: 2
        time: 16
        value: 0.4798554
        inSlope: 0.026575893
        outSlope: 0.026575893
        tangentMode: 0
      - serializedVersion: 2
        time: 17
        value: 0.50317466
        inSlope: 0.021280542
        outSlope: 0.021280542
        tangentMode: 0
      - serializedVersion: 2
        time: 18
        value: 0.5224165
        inSlope: 0.018349737
        outSlope: 0.018349737
        tangentMode: 0
      - serializedVersion: 2
        time: 19
        value: 0.53987414
        inSlope: 0.01765272
        outSlope: 0.01765272
        tangentMode: 0
      - serializedVersion: 2
        time: 20
        value: 0.5577219
        inSlope: 0.017790139
        outSlope: 0.017790139
        tangentMode: 0
      - serializedVersion: 2
        time: 21
        value: 0.5754544
        inSlope: 0.01697582
        outSlope: 0.01697582
        tangentMode: 0
      - serializedVersion: 2
        time: 22
        value: 0.59167355
        inSlope: 0.015829355
        outSlope: 0.015829355
        tangentMode: 0
      - serializedVersion: 2
        time: 23
        value: 0.6071131
        inSlope: 0.0154081285
        outSlope: 0.0154081285
        tangentMode: 0
      - serializedVersion: 2
        time: 24
        value: 0.6224898
        inSlope: 0.015684843
        outSlope: 0.015684843
        tangentMode: 0
      - serializedVersion: 2
        time: 25
        value: 0.6384828
        inSlope: 0.015858024
        outSlope: 0.015858024
        tangentMode: 0
      - serializedVersion: 2
        time: 26
        value: 0.65420586
        inSlope: 0.015297383
        outSlope: 0.015297383
        tangentMode: 0
      - serializedVersion: 2
        time: 27
        value: 0.6690776
        inSlope: 0.01497215
        outSlope: 0.01497215
        tangentMode: 0
      - serializedVersion: 2
        time: 28
        value: 0.68415016
        inSlope: 0.015727222
        outSlope: 0.015727222
        tangentMode: 0
      - serializedVersion: 2
        time: 29
        value: 0.700532
        inSlope: 0.017633408
        outSlope: 0.017633408
        tangentMode: 0
      - serializedVersion: 2
        time: 30
        value: 0.719417
        inSlope: 0.020291
        outSlope: 0.020291
        tangentMode: 0
      - serializedVersion: 2
        time: 31
        value: 0.741114
        inSlope: 0.022581547
        outSlope: 0.022581547
        tangentMode: 0
      - serializedVersion: 2
        time: 32
        value: 0.7645801
        inSlope: 0.023939341
        outSlope: 0.023939341
        tangentMode: 0
      - serializedVersion: 2
        time: 33
        value: 0.7889927
        inSlope: 0.024474025
        outSlope: 0.024474025
        tangentMode: 0
      - serializedVersion: 2
        time: 34
        value: 0.8135281
        inSlope: 0.02420324
        outSlope: 0.02420324
        tangentMode: 0
      - serializedVersion: 2
        time: 35
        value: 0.8373992
        inSlope: 0.024090648
        outSlope: 0.024090648
        tangentMode: 0
      - serializedVersion: 2
        time: 36
        value: 0.8617094
        inSlope: 0.024417192
        outSlope: 0.024417192
        tangentMode: 0
      - serializedVersion: 2
        time: 37
        value: 0.88623357
        inSlope: 0.023498237
        outSlope: 0.023498237
        tangentMode: 0
      - serializedVersion: 2
        time: 38
        value: 0.9087059
        inSlope: 0.020672798
        outSlope: 0.020672798
        tangentMode: 0
      - serializedVersion: 2
        time: 39
        value: 0.92757916
        inSlope: 0.01665011
        outSlope: 0.01665011
        tangentMode: 0
      - serializedVersion: 2
        time: 40
        value: 0.9420061
        inSlope: 0.012343824
        outSlope: 0.012343824
        tangentMode: 0
      - serializedVersion: 2
        time: 41
        value: 0.9522668
        inSlope: 0.008906722
        outSlope: 0.008906722
        tangentMode: 0
      - serializedVersion: 2
        time: 42
        value: 0.95981956
        inSlope: 0.0067371726
        outSlope: 0.0067371726
        tangentMode: 0
      - serializedVersion: 2
        time: 43
        value: 0.96574116
        inSlope: 0.0055238307
        outSlope: 0.0055238307
        tangentMode: 0
      - serializedVersion: 2
        time: 44
        value: 0.9708672
        inSlope: 0.0050558746
        outSlope: 0.0050558746
        tangentMode: 0
      - serializedVersion: 2
        time: 45
        value: 0.9758529
        inSlope: 0.004988402
        outSlope: 0.004988402
        tangentMode: 0
      - serializedVersion: 2
        time: 46
        value: 0.980844
        inSlope: 0.0047163367
        outSlope: 0.0047163367
        tangentMode: 0
      - serializedVersion: 2
        time: 47
        value: 0.9852856
        inSlope: 0.004017025
        outSlope: 0.004017025
        tangentMode: 0
      - serializedVersion: 2
        time: 48
        value: 0.9888781
        inSlope: 0.003166616
        outSlope: 0.003166616
        tangentMode: 0
      - serializedVersion: 2
        time: 49
        value: 0.9916188
        inSlope: 0.0024048686
        outSlope: 0.0024048686
        tangentMode: 0
      - serializedVersion: 2
        time: 50
        value: 0.9936878
        inSlope: 0.0018371046
        outSlope: 0.0018371046
        tangentMode: 0
      - serializedVersion: 2
        time: 51
        value: 0.995293
        inSlope: 0.0013164878
        outSlope: 0.0013164878
        tangentMode: 0
      - serializedVersion: 2
        time: 52
        value: 0.9963208
        inSlope: 0.0006350577
        outSlope: 0.0006350577
        tangentMode: 0
      - serializedVersion: 2
        time: 53
        value: 0.99656314
        inSlope: -0.000030845404
        outSlope: -0.000030845404
        tangentMode: 0
      - serializedVersion: 2
        time: 54
        value: 0.9962591
        inSlope: -0.00020873547
        outSlope: -0.00020873547
        tangentMode: 0
      - serializedVersion: 2
        time: 55
        value: 0.99614567
        inSlope: 0.00020956993
        outSlope: 0.00020956993
        tangentMode: 0
      - serializedVersion: 2
        time: 56
        value: 0.99667823
        inSlope: 0.0007022619
        outSlope: 0.0007022619
        tangentMode: 0
      - serializedVersion: 2
        time: 57
        value: 0.9975502
        inSlope: 0.0008930862
        outSlope: 0.0008930862
        tangentMode: 0
      - serializedVersion: 2
        time: 58
        value: 0.9984644
        inSlope: 0.000818789
        outSlope: 0.000818789
        tangentMode: 0
      - serializedVersion: 2
        time: 59
        value: 0.99918777
        inSlope: 0.00058472157
        outSlope: 0.00058472157
        tangentMode: 0
      - serializedVersion: 2
        time: 60
        value: 0.99963385
        inSlope: 0.00044608116
        outSlope: 0.00044608116
        tangentMode: 0
      m_PreInfinity: 2
      m_PostInfinity: 2
      m_RotationOrder: 4
    attribute: m_LocalRotation.y
    path: 
    classID: 4
    script: {fileID: 0}
  - curve:
      serializedVersion: 2
      m_Curve:
      - serializedVersion: 2
        time: 0
        value: 0
        inSlope: 0
        outSlope: 0
        tangentMode: 0
      - serializedVersion: 2
        time: 1
        value: 0
        inSlope: 0
        outSlope: 0
        tangentMode: 0
      - serializedVersion: 2
        time: 2
        value: 0
        inSlope: 0
        outSlope: 0
        tangentMode: 0
      - serializedVersion: 2
        time: 3
        value: 0
        inSlope: 0
        outSlope: 0
        tangentMode: 0
      - serializedVersion: 2
        time: 4
        value: 0
        inSlope: 0
        outSlope: 0
        tangentMode: 0
      - serializedVersion: 2
        time: 5
        value: 0
        inSlope: -0.00005807739
        outSlope: -0.00005807739
        tangentMode: 0
      - serializedVersion: 2
        time: 6
        value: -0.00011615478
        inSlope: -0.00017418672
        outSlope: -0.00017418672
        tangentMode: 0
      - serializedVersion: 2
        time: 7
        value: -0.00034837343
        inSlope: -0.00020286211
        outSlope: -0.00020286211
        tangentMode: 0
      - serializedVersion: 2
        time: 8
        value: -0.000521879
        inSlope: -0.00005710998
        outSlope: -0.00005710998
        tangentMode: 0
      - serializedVersion: 2
        time: 9
        value: -0.0004625934
        inSlope: 0.0002609395
        outSlope: 0.0002609395
        tangentMode: 0
      - serializedVersion: 2
        time: 10
        value: 0
        inSlope: 0.00077090954
        outSlope: 0.00077090954
        tangentMode: 0
      - serializedVersion: 2
        time: 11
        value: 0.0010792257
        inSlope: 0.0013111928
        outSlope: 0.0013111928
        tangentMode: 0
      - serializedVersion: 2
        time: 12
        value: 0.0026223855
        inSlope: 0.0015892572
        outSlope: 0.0015892572
        tangentMode: 0
      - serializedVersion: 2
        time: 13
        value: 0.00425774
        inSlope: 0.0015184358
        outSlope: 0.0015184358
        tangentMode: 0
      - serializedVersion: 2
        time: 14
        value: 0.005659257
        inSlope: 0.0011554391
        outSlope: 0.0011554391
        tangentMode: 0
      - serializedVersion: 2
        time: 15
        value: 0.006568618
        inSlope: 0.0007039495
        outSlope: 0.0007039495
        tangentMode: 0
      - serializedVersion: 2
        time: 16
        value: 0.007067156
        inSlope: 0.00040236092
        outSlope: 0.00040236092
        tangentMode: 0
      - serializedVersion: 2
        time: 17
        value: 0.00737334
        inSlope: 0.00020140456
        outSlope: 0.00020140456
        tangentMode: 0
      - serializedVersion: 2
        time: 18
        value: 0.007469965
        inSlope: -0.000020860927
        outSlope: -0.000020860927
        tangentMode: 0
      - serializedVersion: 2
        time: 19
        value: 0.007331618
        inSlope: -0.00026963977
        outSlope: -0.00026963977
        tangentMode: 0
      - serializedVersion: 2
        time: 20
        value: 0.0069306856
        inSlope: -0.000032586046
        outSlope: -0.000032586046
        tangentMode: 0
      - serializedVersion: 2
        time: 21
        value: 0.007266446
        inSlope: 0.0007573082
        outSlope: 0.0007573082
        tangentMode: 0
      - serializedVersion: 2
        time: 22
        value: 0.008445302
        inSlope: 0.0008595167
        outSlope: 0.0008595167
        tangentMode: 0
      - serializedVersion: 2
        time: 23
        value: 0.008985479
        inSlope: -0.00058719935
        outSlope: -0.00058719935
        tangentMode: 0
      - serializedVersion: 2
        time: 24
        value: 0.0072709033
        inSlope: -0.0037180881
        outSlope: -0.0037180881
        tangentMode: 0
      - serializedVersion: 2
        time: 25
        value: 0.0015493032
        inSlope: -0.009195291
        outSlope: -0.009195291
        tangentMode: 0
      - serializedVersion: 2
        time: 26
        value: -0.011119679
        inSlope: -0.015741456
        outSlope: -0.015741456
        tangentMode: 0
      - serializedVersion: 2
        time: 27
        value: -0.029933607
        inSlope: -0.019939493
        outSlope: -0.019939493
        tangentMode: 0
      - serializedVersion: 2
        time: 28
        value: -0.050998665
        inSlope: -0.020168073
        outSlope: -0.020168073
        tangentMode: 0
      - serializedVersion: 2
        time: 29
        value: -0.070269756
        inSlope: -0.016267952
        outSlope: -0.016267952
        tangentMode: 0
      - serializedVersion: 2
        time: 30
        value: -0.08353457
        inSlope: -0.009324241
        outSlope: -0.009324241
        tangentMode: 0
      - serializedVersion: 2
        time: 31
        value: -0.08891824
        inSlope: -0.0027217418
        outSlope: -0.0027217418
        tangentMode: 0
      - serializedVersion: 2
        time: 32
        value: -0.08897805
        inSlope: 0.0014650524
        outSlope: 0.0014650524
        tangentMode: 0
      - serializedVersion: 2
        time: 33
        value: -0.085988134
        inSlope: 0.0033491068
        outSlope: 0.0033491068
        tangentMode: 0
      - serializedVersion: 2
        time: 34
        value: -0.08227984
        inSlope: 0.0028763972
        outSlope: 0.0028763972
        tangentMode: 0
      - serializedVersion: 2
        time: 35
        value: -0.08023534
        inSlope: 0.0011898354
        outSlope: 0.0011898354
        tangentMode: 0
      - serializedVersion: 2
        time: 36
        value: -0.07990017
        inSlope: 0.0005166307
        outSlope: 0.0005166307
        tangentMode: 0
      - serializedVersion: 2
        time: 37
        value: -0.07920208
        inSlope: 0.0011047535
        outSlope: 0.0011047535
        tangentMode: 0
      - serializedVersion: 2
        time: 38
        value: -0.07769066
        inSlope: 0.0018957108
        outSlope: 0.0018957108
        tangentMode: 0
      - serializedVersion: 2
        time: 39
        value: -0.07541066
        inSlope: 0.0024193116
        outSlope: 0.0024193116
        tangentMode: 0
      - serializedVersion: 2
        time: 40
        value: -0.07285204
        inSlope: 0.002424527
        outSlope: 0.002424527
        tangentMode: 0
      - serializedVersion: 2
        time: 41
        value: -0.0705616
        inSlope: 0.002057366
        outSlope: 0.002057366
        tangentMode: 0
      - serializedVersion: 2
        time: 42
        value: -0.068737306
        inSlope: 0.0015848391
        outSlope: 0.0015848391
        tangentMode: 0
      - serializedVersion: 2
        time: 43
        value: -0.067391925
        inSlope: 0.0011703745
        outSlope: 0.0011703745
        tangentMode: 0
      - serializedVersion: 2
        time: 44
        value: -0.06639656
        inSlope: 0.0009265579
        outSlope: 0.0009265579
        tangentMode: 0
      - serializedVersion: 2
        time: 45
        value: -0.06553881
        inSlope: 0.00028210506
        outSlope: 0.00028210506
        tangentMode: 0
      - serializedVersion: 2
        time: 46
        value: -0.06583235
        inSlope: -0.00094500184
        outSlope: -0.00094500184
        tangentMode: 0
      - serializedVersion: 2
        time: 47
        value: -0.06742881
        inSlope: -0.0013870746
        outSlope: -0.0013870746
        tangentMode: 0
      - serializedVersion: 2
        time: 48
        value: -0.068606496
        inSlope: -0.000021729618
        outSlope: -0.000021729618
        tangentMode: 0
      - serializedVersion: 2
        time: 49
        value: -0.06747227
        inSlope: 0.0032811556
        outSlope: 0.0032811556
        tangentMode: 0
      - serializedVersion: 2
        time: 50
        value: -0.062044185
        inSlope: 0.009010728
        outSlope: 0.009010728
        tangentMode: 0
      - serializedVersion: 2
        time: 51
        value: -0.049450815
        inSlope: 0.015554698
        outSlope: 0.015554698
        tangentMode: 0
      - serializedVersion: 2
        time: 52
        value: -0.030934788
        inSlope: 0.019356433
        outSlope: 0.019356433
        tangentMode: 0
      - serializedVersion: 2
        time: 53
        value: -0.010737949
        inSlope: 0.018996809
        outSlope: 0.018996809
        tangentMode: 0
      - serializedVersion: 2
        time: 54
        value: 0.0070588286
        inSlope: 0.014671727
        outSlope: 0.014671727
        tangentMode: 0
      - serializedVersion: 2
        time: 55
        value: 0.018605506
        inSlope: 0.007733562
        outSlope: 0.007733562
        tangentMode: 0
      - serializedVersion: 2
        time: 56
        value: 0.022525953
        inSlope: 0.0013638912
        outSlope: 0.0013638912
        tangentMode: 0
      - serializedVersion: 2
        time: 57
        value: 0.021333288
        inSlope: -0.0027178638
        outSlope: -0.0027178638
        tangentMode: 0
      - serializedVersion: 2
        time: 58
        value: 0.017090226
        inSlope: -0.004695519
        outSlope: -0.004695519
        tangentMode: 0
      - serializedVersion: 2
        time: 59
        value: 0.011942251
        inSlope: -0.004468483
        outSlope: -0.004468483
        tangentMode: 0
      - serializedVersion: 2
        time: 60
        value: 0.00815326
        inSlope: -0.003788991
        outSlope: -0.003788991
        tangentMode: 0
      m_PreInfinity: 2
      m_PostInfinity: 2
      m_RotationOrder: 4
    attribute: m_LocalRotation.z
    path: 
    classID: 4
    script: {fileID: 0}
  - curve:
      serializedVersion: 2
      m_Curve:
      - serializedVersion: 2
        time: 0
        value: -0.9670454
        inSlope: -0.0050860643
        outSlope: -0.0050860643
        tangentMode: 0
      - serializedVersion: 2
        time: 1
        value: -0.9721315
        inSlope: -0.0051138997
        outSlope: -0.0051138997
        tangentMode: 0
      - serializedVersion: 2
        time: 2
        value: -0.9772732
        inSlope: -0.0047763586
        outSlope: -0.0047763586
        tangentMode: 0
      - serializedVersion: 2
        time: 3
        value: -0.9816842
        inSlope: -0.003792584
        outSlope: -0.003792584
        tangentMode: 0
      - serializedVersion: 2
        time: 4
        value: -0.9848584
        inSlope: -0.0023983717
        outSlope: -0.0023983717
        tangentMode: 0
      - serializedVersion: 2
        time: 5
        value: -0.98648095
        inSlope: -0.0010467172
        outSlope: -0.0010467172
        tangentMode: 0
      - serializedVersion: 2
        time: 6
        value: -0.9869518
        inSlope: -0.000106692314
        outSlope: -0.000106692314
        tangentMode: 0
      - serializedVersion: 2
        time: 7
        value: -0.98669434
        inSlope: 0.00077179074
        outSlope: 0.00077179074
        tangentMode: 0
      - serializedVersion: 2
        time: 8
        value: -0.98540825
        inSlope: 0.0020227432
        outSlope: 0.0020227432
        tangentMode: 0
      - serializedVersion: 2
        time: 9
        value: -0.98264885
        inSlope: 0.0038462281
        outSlope: 0.0038462281
        tangentMode: 0
      - serializedVersion: 2
        time: 10
        value: -0.9777158
        inSlope: 0.0070316494
        outSlope: 0.0070316494
        tangentMode: 0
      - serializedVersion: 2
        time: 11
        value: -0.96858555
        inSlope: 0.011918545
        outSlope: 0.011918545
        tangentMode: 0
      - serializedVersion: 2
        time: 12
        value: -0.9538787
        inSlope: 0.0170708
        outSlope: 0.0170708
        tangentMode: 0
      - serializedVersion: 2
        time: 13
        value: -0.93444395
        inSlope: 0.020558685
        outSlope: 0.020558685
        tangentMode: 0
      - serializedVersion: 2
        time: 14
        value: -0.91276133
        inSlope: 0.020728588
        outSlope: 0.020728588
        tangentMode: 0
      - serializedVersion: 2
        time: 15
        value: -0.8929868
        inSlope: 0.017724752
        outSlope: 0.017724752
        tangentMode: 0
      - serializedVersion: 2
        time: 16
        value: -0.8773118
        inSlope: 0.01442048
        outSlope: 0.01442048
        tangentMode: 0
      - serializedVersion: 2
        time: 17
        value: -0.8641458
        inSlope: 0.012330383
        outSlope: 0.012330383
        tangentMode: 0
      - serializedVersion: 2
        time: 18
        value: -0.85265106
        inSlope: 0.011218637
        outSlope: 0.011218637
        tangentMode: 0
      - serializedVersion: 2
        time: 19
        value: -0.84170854
        inSlope: 0.011327893
        outSlope: 0.011327893
        tangentMode: 0
      - serializedVersion: 2
        time: 20
        value: -0.8299953
        inSlope: 0.011953533
        outSlope: 0.011953533
        tangentMode: 0
      - serializedVersion: 2
        time: 21
        value: -0.8178015
        inSlope: 0.0119332075
        outSlope: 0.0119332075
        tangentMode: 0
      - serializedVersion: 2
        time: 22
        value: -0.80612886
        inSlope: 0.011628211
        outSlope: 0.011628211
        tangentMode: 0
      - serializedVersion: 2
        time: 23
        value: -0.79454505
        inSlope: 0.011779457
        outSlope: 0.011779457
        tangentMode: 0
      - serializedVersion: 2
        time: 24
        value: -0.78256994
        inSlope: 0.012457997
        outSlope: 0.012457997
        tangentMode: 0
      - serializedVersion: 2
        time: 25
        value: -0.76962906
        inSlope: 0.013179421
        outSlope: 0.013179421
        tangentMode: 0
      - serializedVersion: 2
        time: 26
        value: -0.7562111
        inSlope: 0.0136399865
        outSlope: 0.0136399865
        tangentMode: 0
      - serializedVersion: 2
        time: 27
        value: -0.7423491
        inSlope: 0.01469323
        outSlope: 0.01469323
        tangentMode: 0
      - serializedVersion: 2
        time: 28
        value: -0.72682464
        inSlope: 0.016783357
        outSlope: 0.016783357
        tangentMode: 0
      - serializedVersion: 2
        time: 29
        value: -0.7087824
        inSlope: 0.019573897
        outSlope: 0.019573897
        tangentMode: 0
      - serializedVersion: 2
        time: 30
        value: -0.68767685
        inSlope: 0.022683978
        outSlope: 0.022683978
        tangentMode: 0
      - serializedVersion: 2
        time: 31
        value: -0.6634144
        inSlope: 0.025689244
        outSlope: 0.025689244
        tangentMode: 0
      - serializedVersion: 2
        time: 32
        value: -0.63629836
        inSlope: 0.028503329
        outSlope: 0.028503329
        tangentMode: 0
      - serializedVersion: 2
        time: 33
        value: -0.60640776
        inSlope: 0.03119421
        outSlope: 0.03119421
        tangentMode: 0
      - serializedVersion: 2
        time: 34
        value: -0.57390994
        inSlope: 0.033634484
        outSlope: 0.033634484
        tangentMode: 0
      - serializedVersion: 2
        time: 35
        value: -0.5391388
        inSlope: 0.03699325
        outSlope: 0.03699325
        tangentMode: 0
      - serializedVersion: 2
        time: 36
        value: -0.49992344
        inSlope: 0.04169263
        outSlope: 0.04169263
        tangentMode: 0
      - serializedVersion: 2
        time: 37
        value: -0.45575354
        inSlope: 0.045026287
        outSlope: 0.045026287
        tangentMode: 0
      - serializedVersion: 2
        time: 38
        value: -0.40987086
        inSlope: 0.04494235
        outSlope: 0.04494235
        tangentMode: 0
      - serializedVersion: 2
        time: 39
        value: -0.36586884
        inSlope: 0.04114613
        outSlope: 0.04114613
        tangentMode: 0
      - serializedVersion: 2
        time: 40
        value: -0.3275786
        inSlope: 0.034447655
        outSlope: 0.034447655
        tangentMode: 0
      - serializedVersion: 2
        time: 41
        value: -0.29697353
        inSlope: 0.027819082
        outSlope: 0.027819082
        tangentMode: 0
      - serializedVersion: 2
        time: 42
        value: -0.27194044
        inSlope: 0.023394287
        outSlope: 0.023394287
        tangentMode: 0
      - serializedVersion: 2
        time: 43
        value: -0.25018495
        inSlope: 0.021313444
        outSlope: 0.021313444
        tangentMode: 0
      - serializedVersion: 2
        time: 44
        value: -0.22931355
        inSlope: 0.021661617
        outSlope: 0.021661617
        tangentMode: 0
      - serializedVersion: 2
        time: 45
        value: -0.20686172
        inSlope: 0.024106912
        outSlope: 0.024106912
        tangentMode: 0
      - serializedVersion: 2
        time: 46
        value: -0.18109973
        inSlope: 0.026579916
        outSlope: 0.026579916
        tangentMode: 0
      - serializedVersion: 2
        time: 47
        value: -0.15370189
        inSlope: 0.026921771
        outSlope: 0.026921771
        tangentMode: 0
      - serializedVersion: 2
        time: 48
        value: -0.12725618
        inSlope: 0.024680134
        outSlope: 0.024680134
        tangentMode: 0
      - serializedVersion: 2
        time: 49
        value: -0.10434162
        inSlope: 0.019852474
        outSlope: 0.019852474
        tangentMode: 0
      - serializedVersion: 2
        time: 50
        value: -0.087551236
        inSlope: 0.012388807
        outSlope: 0.012388807
        tangentMode: 0
      - serializedVersion: 2
        time: 51
        value: -0.079564005
        inSlope: 0.004288934
        outSlope: 0.004288934
        tangentMode: 0
      - serializedVersion: 2
        time: 52
        value: -0.07897337
        inSlope: -0.0012766123
        outSlope: -0.0012766123
        tangentMode: 0
      - serializedVersion: 2
        time: 53
        value: -0.08211723
        inSlope: -0.0029805228
        outSlope: -0.0029805228
        tangentMode: 0
      - serializedVersion: 2
        time: 54
        value: -0.08493441
        inSlope: -0.00044312328
        outSlope: -0.00044312328
        tangentMode: 0
      - serializedVersion: 2
        time: 55
        value: -0.083003476
        inSlope: 0.004892979
        outSlope: 0.004892979
        tangentMode: 0
      - serializedVersion: 2
        time: 56
        value: -0.075148456
        inSlope: 0.009441793
        outSlope: 0.009441793
        tangentMode: 0
      - serializedVersion: 2
        time: 57
        value: -0.06411989
        inSlope: 0.011920614
        outSlope: 0.011920614
        tangentMode: 0
      - serializedVersion: 2
        time: 58
        value: -0.051307227
        inSlope: 0.013013201
        outSlope: 0.013013201
        tangentMode: 0
      - serializedVersion: 2
        time: 59
        value: -0.03809349
        inSlope: 0.012754174
        outSlope: 0.012754174
        tangentMode: 0
      - serializedVersion: 2
        time: 60
        value: -0.02579888
        inSlope: 0.012294609
        outSlope: 0.012294609
        tangentMode: 0
      m_PreInfinity: 2
      m_PostInfinity: 2
      m_RotationOrder: 4
    attribute: m_LocalRotation.w
    path: 
    classID: 4
    script: {fileID: 0}
  m_EulerEditorCurves:
  - curve:
      serializedVersion: 2
      m_Curve:
      - serializedVersion: 2
        time: 0
        value: 0
        inSlope: 0
        outSlope: 0
        tangentMode: 34
      - serializedVersion: 2
        time: 5
        value: 0
        inSlope: 0
        outSlope: 0
        tangentMode: 34
      - serializedVersion: 2
        time: 10
        value: 0
        inSlope: 0
        outSlope: 0
        tangentMode: 34
      - serializedVersion: 2
        time: 15
        value: 0
        inSlope: -0.020837402
        outSlope: -0.020837402
        tangentMode: 34
      - serializedVersion: 2
        time: 20
        value: -0.20837402
        inSlope: -0.036779784
        outSlope: -0.036779784
        tangentMode: 34
      - serializedVersion: 2
        time: 25
        value: -0.36779785
        inSlope: 1.114972
        outSlope: 1.114972
        tangentMode: 34
      - serializedVersion: 2
        time: 30
        value: 10.941345
        inSlope: 1.0634689
        outSlope: 1.0634689
        tangentMode: 34
      - serializedVersion: 2
        time: 35
        value: 10.2668915
        inSlope: -0.2936615
        outSlope: -0.2936615
        tangentMode: 34
      - serializedVersion: 2
        time: 40
        value: 8.00473
        inSlope: -0.2320465
        outSlope: -0.2320465
        tangentMode: 34
      - serializedVersion: 2
        time: 45
        value: 7.9464264
        inSlope: -0.05910492
        outSlope: -0.05910492
        tangentMode: 34
      - serializedVersion: 2
        time: 50
        value: 7.413681
        inSlope: -1.027446
        outSlope: -1.027446
        tangentMode: 34
      - serializedVersion: 2
        time: 55
        value: -2.3280334
        inSlope: -0.8348297
        outSlope: -0.8348297
        tangentMode: 34
      - serializedVersion: 2
        time: 60
        value: -0.9346161
        inSlope: 0.27868348
        outSlope: 0.27868348
        tangentMode: 34
      m_PreInfinity: 2
      m_PostInfinity: 2
      m_RotationOrder: 4
    attribute: localEulerAnglesBaked.x
    path: 
    classID: 4
    script: {fileID: 0}
  - curve:
      serializedVersion: 2
      m_Curve:
      - serializedVersion: 2
        time: 0
        value: -389.50018
        inSlope: 2.1272705
        outSlope: 2.1272705
        tangentMode: 34
      - serializedVersion: 2
        time: 5
        value: -378.86383
        inSlope: 0.52633667
        outSlope: 0.52633667
        tangentMode: 34
      - serializedVersion: 2
        time: 10
        value: -384.23682
        inSlope: -3.462799
        outSlope: -3.462799
        tangentMode: 34
      - serializedVersion: 2
        time: 15
        value: -413.49182
        inSlope: -4.3560543
        outSlope: -4.3560543
        tangentMode: 34
      - serializedVersion: 2
        time: 20
        value: -427.79736
        inSlope: -2.5866456
        outSlope: -2.5866456
        tangentMode: 34
      - serializedVersion: 2
        time: 25
        value: -439.35828
        inSlope: -2.455182
        outSlope: -2.455182
        tangentMode: 34
      - serializedVersion: 2
        time: 30
        value: -452.34918
        inSlope: -3.4996521
        outSlope: -3.4996521
        tangentMode: 34
      - serializedVersion: 2
        time: 35
        value: -474.3548
        inSlope: -4.9130983
        outSlope: -4.9130983
        tangentMode: 34
      - serializedVersion: 2
        time: 40
        value: -501.48016
        inSlope: -4.1795287
        outSlope: -4.1795287
        tangentMode: 34
      - serializedVersion: 2
        time: 45
        value: -516.1501
        inSlope: -2.865222
        outSlope: -2.865222
        tangentMode: 34
      - serializedVersion: 2
        time: 50
        value: -530.1324
        inSlope: -1.4369689
        outSlope: -1.4369689
        tangentMode: 34
      - serializedVersion: 2
        time: 55
        value: -530.5198
        inSlope: -0.6910828
        outSlope: -0.6910828
        tangentMode: 34
      - serializedVersion: 2
        time: 60
        value: -537.0432
        inSlope: -1.3046875
        outSlope: -1.3046875
        tangentMode: 34
      m_PreInfinity: 2
      m_PostInfinity: 2
      m_RotationOrder: 4
    attribute: localEulerAnglesBaked.y
    path: 
    classID: 4
    script: {fileID: 0}
  - curve:
      serializedVersion: 2
      m_Curve:
      - serializedVersion: 2
        time: 0
        value: 0
        inSlope: 0
        outSlope: 0
        tangentMode: 34
      - serializedVersion: 2
        time: 5
        value: 0
        inSlope: 0
        outSlope: 0
        tangentMode: 34
      - serializedVersion: 2
        time: 10
        value: 0
        inSlope: -0.08428955
        outSlope: -0.08428955
        tangentMode: 34
      - serializedVersion: 2
        time: 15
        value: -0.8428955
        inSlope: -0.08168335
        outSlope: -0.08168335
        tangentMode: 34
      - serializedVersion: 2
        time: 20
        value: -0.8168335
        inSlope: 0.09173431
        outSlope: 0.09173431
        tangentMode: 34
      - serializedVersion: 2
        time: 25
        value: 0.07444763
        inSlope: 0.3272354
        outSlope: 0.3272354
        tangentMode: 34
      - serializedVersion: 2
        time: 30
        value: 2.4555206
        inSlope: 0.0996933
        outSlope: 0.0996933
        tangentMode: 34
      - serializedVersion: 2
        time: 35
        value: 1.0713806
        inSlope: -0.002607718
        outSlope: -0.002607718
        tangentMode: 34
      - serializedVersion: 2
        time: 40
        value: 2.4294434
        inSlope: -0.23232575
        outSlope: -0.23232575
        tangentMode: 34
      - serializedVersion: 2
        time: 45
        value: -1.2518768
        inSlope: -0.5559128
        outSlope: -0.5559128
        tangentMode: 34
      - serializedVersion: 2
        time: 50
        value: -3.1296844
        inSlope: 0.35205534
        outSlope: 0.35205534
        tangentMode: 34
      - serializedVersion: 2
        time: 55
        value: 2.2686768
        inSlope: 0.31296843
        outSlope: 0.31296843
        tangentMode: 34
      - serializedVersion: 2
        time: 60
        value: 0
        inSlope: -0.45373535
        outSlope: -0.45373535
        tangentMode: 34
      m_PreInfinity: 2
      m_PostInfinity: 2
      m_RotationOrder: 4
    attribute: localEulerAnglesBaked.z
    path: 
    classID: 4
    script: {fileID: 0}
  m_HasGenericRootTransform: 1
  m_HasMotionFloatCurves: 0
  m_GenerateMotionCurves: 0
  m_Events: []
