%YAML 1.1
%TAG !u! tag:unity3d.com,2011:
--- !u!114 &11400000
MonoBehaviour:
  m_ObjectHideFlags: 0
  m_CorrespondingSourceObject: {fileID: 0}
  m_PrefabInstance: {fileID: 0}
  m_PrefabAsset: {fileID: 0}
  m_GameObject: {fileID: 0}
  m_Enabled: 1
  m_EditorHideFlags: 0
  m_Script: {fileID: 11500000, guid: d23bb10fef1f7714287159c9a39ea5e2, type: 3}
  m_Name: _Resources_Shared Data_Asset List 1
  m_EditorClassIdentifier: 
  Cars:
  - {fileID: 1562912461902148, guid: 1769f9bc377b9174fb7ad2d761d2f022, type: 3}
  - {fileID: 1201883580331832, guid: 39af7b81174605e40bb59e59ae669a3a, type: 3}
  - {fileID: 1725951067139740, guid: 57628baa3cead7d4ba7c7a4cd3c2dfeb, type: 3}
  - {fileID: 1885929045784912, guid: 67d152d38579c1c41877e9532bb2fd32, type: 3}
  - {fileID: 1674622174089800, guid: 23a32fa6d9803d941bab2ba98929c27a, type: 3}
  - {fileID: 1366840277520372, guid: 3c39e70e5dfafc2478d0783eeefc0c0f, type: 3}
  - {fileID: 1396547479961966, guid: 7ccc3a0b6a2f71d4980576b416a1ed81, type: 3}
  - {fileID: 1384242719305970, guid: 62c5cd32dc40dcb4d87ae5ffb57beaf7, type: 3}
  Pedestrians:
  - {fileID: 9065566467657770616, guid: a20371550f73b284e8137482e1c37be0, type: 3}
